00:00:00,0.00010297600659
00:10:00,0.000308928019771
00:20:00,0.000617856039543
00:30:00,0.000926784059314
00:40:00,0.0011327360725
00:50:00,0.0011327360725
01:00:00,0.00123571207909
01:10:00,0.00123571207909
01:20:00,0.00123571207909
01:30:00,0.00123571207909
01:40:00,0.00123571207909
01:50:00,0.00123571207909
02:00:00,0.00123571207909
02:10:00,0.00123571207909
02:20:00,0.00123571207909
02:30:00,0.00123571207909
02:40:00,0.00123571207909
02:50:00,0.00133868808568
03:00:00,0.00144166409227
03:10:00,0.00144166409227
03:20:00,0.00144166409227
03:30:00,0.00144166409227
03:40:00,0.00144166409227
03:50:00,0.00144166409227
04:00:00,0.00144166409227
04:10:00,0.00144166409227
04:20:00,0.00144166409227
04:30:00,0.00144166409227
04:40:00,0.00144166409227
04:50:00,0.00154464009886
05:00:00,0.00164761610545
05:10:00,0.00175059211204
05:20:00,0.00185356811863
05:30:00,0.0021624961384
05:40:00,0.00226547214499
05:50:00,0.00247142415817
06:00:00,0.00267737617135
06:10:00,0.00308928019771
06:20:00,0.00381011224385
06:30:00,0.00442796828339
06:40:00,0.00483987230975
06:50:00,0.00556070435589
07:00:00,0.0064874884152
07:10:00,0.00792915250747
07:20:00,0.00998867263928
07:30:00,0.012563072804
07:40:00,0.0146225929358
07:50:00,0.0184327051797
08:00:00,0.0214190093708
08:10:00,0.0244053135619
08:20:00,0.027906497786
08:30:00,0.0322314900628
08:40:00,0.0366594583462
08:50:00,0.0417052826691
09:00:00,0.0468540829987
09:10:00,0.0511790752755
09:20:00,0.0557100195654
09:30:00,0.0600350118422
09:40:00,0.0641540521059
09:50:00,0.0684790443827
10:00:00,0.071671300587
10:10:00,0.0738337967254
10:20:00,0.075687364844
10:30:00,0.0770260529297
10:40:00,0.0791885490681
10:50:00,0.0807331891669
11:00:00,0.0827927092987
11:10:00,0.0857790134899
11:20:00,0.0886623416744
11:30:00,0.0933992379776
11:40:00,0.0989599423334
11:50:00,0.106683142828
12:00:00,0.119452167645
12:10:00,0.131603336423
12:20:00,0.145505097312
12:30:00,0.164143754505
12:40:00,0.187210379981
12:50:00,0.212851405622
13:00:00,0.245803727731
13:10:00,0.275048913603
13:20:00,0.301925651323
13:30:00,0.334774997426
13:40:00,0.370198743693
13:50:00,0.404077849861
14:00:00,0.442487900319
14:10:00,0.47358665431
14:20:00,0.500669344043
14:30:00,0.523941921532
14:40:00,0.541447842653
14:50:00,0.557203171661
15:00:00,0.566676964267
15:10:00,0.574091236742
15:20:00,0.580990629183
15:30:00,0.586139429513
15:40:00,0.589743589744
15:50:00,0.593141797961
16:00:00,0.594892390073
16:10:00,0.596437030172
16:20:00,0.597672742251
16:30:00,0.598393574297
16:40:00,0.59890845433
16:50:00,0.599320358357
17:00:00,0.599629286376
17:10:00,0.600350118422
17:20:00,0.601173926475
17:30:00,0.602409638554
17:40:00,0.60343939862
17:50:00,0.604366182679
18:00:00,0.606734630831
18:10:00,0.609103078983
18:20:00,0.611368551128
18:30:00,0.614560807332
18:40:00,0.620945319741
18:50:00,0.628050664195
19:00:00,0.641231593039
19:10:00,0.654103593863
19:20:00,0.668829162805
19:30:00,0.686746987952
19:40:00,0.706415405211
19:50:00,0.727319534548
20:00:00,0.753578416229
20:10:00,0.777983729791
20:20:00,0.800638451241
20:30:00,0.82905982906
20:40:00,0.858819894964
20:50:00,0.886932344764
21:00:00,0.914426938523
21:10:00,0.937081659973
21:20:00,0.952836988982
21:30:00,0.965091133766
21:40:00,0.972402430234
21:50:00,0.979713726702
22:00:00,0.984141694985
22:10:00,0.987848831222
22:20:00,0.990835135413
22:30:00,0.993100607558
22:40:00,0.99485119967
22:50:00,0.995983935743
23:00:00,0.997425599835
23:10:00,0.998455359901
23:20:00,0.99938214396
23:30:00,0.99969107198
23:40:00,1.0
23:50:00,1.0
