00:00:00,0.000537201181843
00:10:00,0.000805801772764
00:20:00,0.00107440236369
00:30:00,0.00134300295461
00:40:00,0.00134300295461
00:50:00,0.00134300295461
01:00:00,0.00134300295461
01:10:00,0.00134300295461
01:20:00,0.00134300295461
01:30:00,0.00134300295461
01:40:00,0.00134300295461
01:50:00,0.00134300295461
02:00:00,0.00134300295461
02:10:00,0.00134300295461
02:20:00,0.00134300295461
02:30:00,0.00134300295461
02:40:00,0.00134300295461
02:50:00,0.00134300295461
03:00:00,0.00134300295461
03:10:00,0.00134300295461
03:20:00,0.00134300295461
03:30:00,0.00134300295461
03:40:00,0.00134300295461
03:50:00,0.00134300295461
04:00:00,0.00134300295461
04:10:00,0.00134300295461
04:20:00,0.00134300295461
04:30:00,0.00134300295461
04:40:00,0.00161160354553
04:50:00,0.00161160354553
05:00:00,0.00161160354553
05:10:00,0.00161160354553
05:20:00,0.00161160354553
05:30:00,0.00161160354553
05:40:00,0.00188020413645
05:50:00,0.00188020413645
06:00:00,0.00241740531829
06:10:00,0.00349180768198
06:20:00,0.00483481063658
06:30:00,0.00564061240935
06:40:00,0.00698361536395
06:50:00,0.0088638195004
07:00:00,0.0112812248187
07:10:00,0.0134300295461
07:20:00,0.0158474348644
07:30:00,0.0196078431373
07:40:00,0.0257856567284
07:50:00,0.0300832661832
08:00:00,0.0402900886382
08:10:00,0.0518399140478
08:20:00,0.0644641418211
08:30:00,0.0770883695944
08:40:00,0.0875637926403
08:50:00,0.0980392156863
09:00:00,0.114155251142
09:10:00,0.13107708837
09:20:00,0.149073327961
09:30:00,0.167069567553
09:40:00,0.18667741069
09:50:00,0.205210851464
10:00:00,0.224012892828
10:10:00,0.242277733011
10:20:00,0.259199570239
10:30:00,0.278538812785
10:40:00,0.295997851195
10:50:00,0.314262691378
11:00:00,0.331990330379
11:10:00,0.349180768198
11:20:00,0.363147998926
11:30:00,0.383024442654
11:40:00,0.398603276927
11:50:00,0.413107708837
12:00:00,0.428955143701
12:10:00,0.441847972066
12:20:00,0.45178619393
12:30:00,0.461724415794
12:40:00,0.470856835885
12:50:00,0.479452054795
13:00:00,0.485629868386
13:10:00,0.491807681977
13:20:00,0.497179693795
13:30:00,0.505506312114
13:40:00,0.51302712866
13:50:00,0.521622347569
14:00:00,0.532366371206
14:10:00,0.543916196616
14:20:00,0.558689229116
14:30:00,0.574536663981
14:40:00,0.58904109589
14:50:00,0.601396723073
15:00:00,0.614289551437
15:10:00,0.625839376847
15:20:00,0.636046199302
15:30:00,0.647058823529
15:40:00,0.658071447757
15:50:00,0.668009669621
16:00:00,0.683588503895
16:10:00,0.699973139941
16:20:00,0.71420897126
16:30:00,0.726564598442
16:40:00,0.741606231534
16:50:00,0.754499059898
17:00:00,0.76390008058
17:10:00,0.776255707763
17:20:00,0.788611334945
17:30:00,0.800966962127
17:40:00,0.812785388128
17:50:00,0.822455009401
18:00:00,0.832661831856
18:10:00,0.844480257857
18:20:00,0.856030083266
18:30:00,0.868117109858
18:40:00,0.879935535858
18:50:00,0.887993553586
19:00:00,0.894439967768
19:10:00,0.900349180768
19:20:00,0.907332796132
19:30:00,0.912973408541
19:40:00,0.917808219178
19:50:00,0.921568627451
20:00:00,0.926940639269
20:10:00,0.930432446951
20:20:00,0.933387053452
20:30:00,0.938490464679
20:40:00,0.942519473543
20:50:00,0.947891485361
21:00:00,0.952994896589
21:10:00,0.957829707225
21:20:00,0.962395917271
21:30:00,0.967767929089
21:40:00,0.973139940908
21:50:00,0.977168949772
22:00:00,0.980392156863
22:10:00,0.983883964545
22:20:00,0.986032769272
22:30:00,0.987375772227
22:40:00,0.988718775181
22:50:00,0.990330378727
23:00:00,0.992479183454
23:10:00,0.994627988182
23:20:00,0.995970991136
23:30:00,0.997582594682
23:40:00,0.999194198227
23:50:00,1.0
