00:00:00,0.000291800408521
00:10:00,0.000291800408521
00:20:00,0.000291800408521
00:30:00,0.000291800408521
00:40:00,0.000291800408521
00:50:00,0.000291800408521
01:00:00,0.000291800408521
01:10:00,0.000291800408521
01:20:00,0.000291800408521
01:30:00,0.000291800408521
01:40:00,0.000291800408521
01:50:00,0.000291800408521
02:00:00,0.000291800408521
02:10:00,0.000291800408521
02:20:00,0.000291800408521
02:30:00,0.000291800408521
02:40:00,0.000291800408521
02:50:00,0.000291800408521
03:00:00,0.000291800408521
03:10:00,0.000291800408521
03:20:00,0.000291800408521
03:30:00,0.000291800408521
03:40:00,0.000291800408521
03:50:00,0.000291800408521
04:00:00,0.000291800408521
04:10:00,0.000291800408521
04:20:00,0.000291800408521
04:30:00,0.000291800408521
04:40:00,0.000291800408521
04:50:00,0.000583600817041
05:00:00,0.000875401225562
05:10:00,0.00116720163408
05:20:00,0.0014590020426
05:30:00,0.00175080245112
05:40:00,0.00175080245112
05:50:00,0.00175080245112
06:00:00,0.00204260285964
06:10:00,0.00291800408521
06:20:00,0.00379340531077
06:30:00,0.00525240735337
06:40:00,0.00700320980449
06:50:00,0.00933761307266
07:00:00,0.0119638167493
07:10:00,0.0151736212431
07:20:00,0.020717829005
07:30:00,0.0274292384009
07:40:00,0.0318062445287
07:50:00,0.0382258535162
08:00:00,0.0475634665889
08:10:00,0.0574846804786
08:20:00,0.0656550919171
08:30:00,0.0741173037642
08:40:00,0.085205719288
08:50:00,0.0977531368544
09:00:00,0.115844762183
09:10:00,0.133352786694
09:20:00,0.151736212431
09:30:00,0.170411438576
09:40:00,0.18733586227
09:50:00,0.206011088416
10:00:00,0.232564925591
10:10:00,0.257367960315
10:20:00,0.282170995039
10:30:00,0.303180624453
10:40:00,0.325649255909
10:50:00,0.347242486139
11:00:00,0.36883571637
11:10:00,0.390428946601
11:20:00,0.407645170703
11:30:00,0.42398599358
11:40:00,0.438867814415
11:50:00,0.450539830756
12:00:00,0.462795447914
12:10:00,0.473883863437
12:20:00,0.482346075285
12:30:00,0.489349285089
12:40:00,0.496936095711
12:50:00,0.502772103881
13:00:00,0.508024511234
13:10:00,0.513276918588
13:20:00,0.519112926758
13:30:00,0.526116136563
13:40:00,0.533119346367
13:50:00,0.539830755763
14:00:00,0.548876568427
14:10:00,0.556463379049
14:20:00,0.564341990079
14:30:00,0.572804201926
14:40:00,0.582725415816
14:50:00,0.594105631748
15:00:00,0.610738255034
15:10:00,0.624744674643
15:20:00,0.637875693026
15:30:00,0.651006711409
15:40:00,0.665304931427
15:50:00,0.685439159615
16:00:00,0.704989786986
16:10:00,0.723665013131
16:20:00,0.741173037642
16:30:00,0.759556463379
16:40:00,0.776189086665
16:50:00,0.790487306682
17:00:00,0.806244528742
17:10:00,0.822001750802
17:20:00,0.835716370003
17:30:00,0.850306390429
17:40:00,0.864021009629
17:50:00,0.876860227604
18:00:00,0.887948643128
18:10:00,0.898745258243
18:20:00,0.91129267581
18:30:00,0.921505690108
18:40:00,0.930551502772
18:50:00,0.936679311351
19:00:00,0.942515319521
19:10:00,0.947475926466
19:20:00,0.95068573096
19:30:00,0.953020134228
19:40:00,0.955354537496
19:50:00,0.957397140356
20:00:00,0.959731543624
20:10:00,0.963524948935
20:20:00,0.967026553837
20:30:00,0.969652757514
20:40:00,0.971987160782
20:50:00,0.974029763642
21:00:00,0.97636416691
21:10:00,0.978406769769
21:20:00,0.980449372629
21:30:00,0.982491975489
21:40:00,0.985701779982
21:50:00,0.987452582434
22:00:00,0.988911584476
22:10:00,0.989203384885
22:20:00,0.989786985702
22:30:00,0.990954187336
22:40:00,0.992413189378
22:50:00,0.99416399183
23:00:00,0.995914794281
23:10:00,0.997081995915
23:20:00,0.998249197549
23:30:00,0.998832798366
23:40:00,0.999124598774
23:50:00,1.0
